Biostat 203B Homework 4
…
Computational engine: xgboost 

# Tuning grid
param_grid_logit <- grid_regular(
  penalty(range = c(-6, 3)), 
  mixture(),
  levels = c(100, 5)
  )
param_grid_logit

# A tibble: 500 × 2
      penalty mixture
        <dbl>   <dbl>
 1 0.000001         0
 2 0.00000123       0
 3 0.00000152       0
 4 0.00000187       0
 5 0.00000231       0
 6 0.00000285       0
 7 0.00000351       0
 8 0.00000433       0
 9 0.00000534       0
10 0.00000658       0
# … with 490 more rows
…
param_grid_boost <- grid_regular(
  tree_depth(range = c(1L, 3L)),
  learn_rate(range = c(-5, 2), trans = log10_trans()),
  levels = c(3, 10)
  )
param_grid_boost

# A tibble: 30 × 2
   tree_depth learn_rate
        <int>      <dbl>
 1          1  0.00001  
 2          2  0.00001  
 3          3  0.00001  
 4          1  0.0000599
 5          2  0.0000599
 6          3  0.0000599
 7          1  0.000359 
 8          2  0.000359 
 9          3  0.000359 
10          1  0.00215  
# … with 20 more rows
…
logit_fit %>%
  collect_metrics() %>%
  print(width = Inf) %>%
  filter(.metric == "roc_auc") %>%
  ggplot(mapping = aes(x = penalty, y = mean, color = mixture)) +
  geom_point() +
  labs(x = "Penalty", y = "CV AUC") +
  scale_x_log10()

# A tibble: 1,000 × 8
      penalty mixture .metric  .estimator  mean     n std_err
        <dbl>   <dbl> <chr>    <chr>      <dbl> <int>   <dbl>
 1 0.000001         0 accuracy binary     0.903     5 0.00105
 2 0.000001         0 roc_auc  binary     0.754     5 0.00243
 3 0.00000123       0 accuracy binary     0.903     5 0.00105
 4 0.00000123       0 roc_auc  binary     0.754     5 0.00243
 5 0.00000152       0 accuracy binary     0.903     5 0.00105
 6 0.00000152       0 roc_auc  binary     0.754     5 0.00243
 7 0.00000187       0 accuracy binary     0.903     5 0.00105
 8 0.00000187       0 roc_auc  binary     0.754     5 0.00243
 9 0.00000231       0 accuracy binary     0.903     5 0.00105
10 0.00000231       0 roc_auc  binary     0.754     5 0.00243
   .config               
   <chr>                 
 1 Preprocessor1_Model001
 2 Preprocessor1_Model001
 3 Preprocessor1_Model002
 4 Preprocessor1_Model002
 5 Preprocessor1_Model003
 6 Preprocessor1_Model003
 7 Preprocessor1_Model004
 8 Preprocessor1_Model004
 9 Preprocessor1_Model005
10 Preprocessor1_Model005
# … with 990 more rows
…
rf_fit %>%
  collect_metrics() %>%
  print(width = Inf) %>%
  filter(.metric == "roc_auc") %>%
  ggplot(mapping = aes(x = trees, y = mean, color = mtry)) +
  geom_point() + 
  # geom_line() + 
  labs(x = "Num. of Trees", y = "CV AUC")

# A tibble: 30 × 8
    mtry trees .metric  .estimator  mean     n  std_err .config              
   <int> <int> <chr>    <chr>      <dbl> <int>    <dbl> <chr>                
 1     1   100 accuracy binary     0.903     5 0.000736 Preprocessor1_Model01
 2     1   100 roc_auc  binary     0.801     5 0.00427  Preprocessor1_Model01
 3     1   200 accuracy binary     0.902     5 0.000745 Preprocessor1_Model02
 4     1   200 roc_auc  binary     0.810     5 0.00235  Preprocessor1_Model02
 5     1   300 accuracy binary     0.903     5 0.000717 Preprocessor1_Model03
 6     1   300 roc_auc  binary     0.809     5 0.00278  Preprocessor1_Model03
 7     2   100 accuracy binary     0.904     5 0.000408 Preprocessor1_Model04
 8     2   100 roc_auc  binary     0.804     5 0.00253  Preprocessor1_Model04
 9     2   200 accuracy binary     0.904     5 0.000478 Preprocessor1_Model05
10     2   200 roc_auc  binary     0.809     5 0.00319  Preprocessor1_Model05
# … with 20 more rows
…
gb_fit %>%
  collect_metrics() %>%
  print(width = Inf) %>%
  filter(.metric == "roc_auc") %>%
  ggplot(mapping = aes(x = learn_rate, y = mean, color = tree_depth)) +
  geom_point() +
  labs(x = "Learning Rate", y = "CV AUC") +
  scale_x_log10()

# A tibble: 60 × 8
   tree_depth learn_rate .metric  .estimator  mean     n  std_err
        <int>      <dbl> <chr>    <chr>      <dbl> <int>    <dbl>
 1          1  0.00001   accuracy binary     0.902     5 0.000740
 2          1  0.00001   roc_auc  binary     0.632     5 0.00420 
 3          2  0.00001   accuracy binary     0.902     5 0.000740
 4          2  0.00001   roc_auc  binary     0.662     5 0.00509 
 5          3  0.00001   accuracy binary     0.902     5 0.000740
 6          3  0.00001   roc_auc  binary     0.695     5 0.00458 
 7          1  0.0000599 accuracy binary     0.902     5 0.000740
 8          1  0.0000599 roc_auc  binary     0.632     5 0.00420 
 9          2  0.0000599 accuracy binary     0.902     5 0.000740
10          2  0.0000599 roc_auc  binary     0.664     5 0.00654 
   .config              
   <chr>                
 1 Preprocessor1_Model01
 2 Preprocessor1_Model01
 3 Preprocessor1_Model02
 4 Preprocessor1_Model02
 5 Preprocessor1_Model03
 6 Preprocessor1_Model03
 7 Preprocessor1_Model04
 8 Preprocessor1_Model04
 9 Preprocessor1_Model05
10 Preprocessor1_Model05
# … with 50 more rows
…
