Biostat 203B Homework 2
…
Import icustatys.csv.gz as a tibble icustays_tble.

icustays_tble <- str_c(mimic_path, "/icu/icustays.csv.gz") %>% 
  read_csv() %>% 
  print(width = Inf)

# A tibble: 76,540 × 8
   subject_id  hadm_id  stay_id first_careunit          
        <dbl>    <dbl>    <dbl> <chr>                   
 1   17867402 24528534 31793211 Trauma SICU (TSICU)     
 2   14435996 28960964 31983544 Trauma SICU (TSICU)     
 3   17609946 27385897 33183475 Trauma SICU (TSICU)     
 4   18966770 23483021 34131444 Trauma SICU (TSICU)     
 5   12776735 20817525 34547665 Neuro Stepdown          
 6   10215159 24283593 34569476 Trauma SICU (TSICU)     
 7   14489052 26516390 35056286 Trauma SICU (TSICU)     
 8   15914763 28906020 36909804 Trauma SICU (TSICU)     
 9   16256226 20013290 39289362 Neuro Stepdown          
10   19194449 21641999 39387567 Coronary Care Unit (CCU)
   last_careunit            intime              outtime               los
   <chr>                    <dttm>              <dttm>              <dbl>
 1 Trauma SICU (TSICU)      2154-03-03 04:11:00 2154-03-04 18:16:56 1.59 
 2 Trauma SICU (TSICU)      2150-06-19 17:57:00 2150-06-22 18:33:54 3.03 
 3 Trauma SICU (TSICU)      2138-02-05 18:54:00 2138-02-15 12:42:05 9.74 
 4 Trauma SICU (TSICU)      2123-10-25 10:35:00 2123-10-25 18:59:47 0.351
 5 Neuro Stepdown           2200-07-12 00:33:00 2200-07-13 16:44:40 1.67 
 6 Trauma SICU (TSICU)      2124-09-20 15:05:29 2124-09-21 22:06:58 1.29 
 7 Trauma SICU (TSICU)      2118-10-26 10:33:56 2118-10-26 20:28:10 0.413
 8 Trauma SICU (TSICU)      2176-12-14 12:00:00 2176-12-17 11:47:01 2.99 
 9 Neuro Stepdown           2150-12-20 16:09:08 2150-12-21 14:58:40 0.951
10 Coronary Care Unit (CCU) 2123-11-12 02:53:35 2123-11-12 13:52:03 0.457
# … with 76,530 more rows
…
For each subject_id, let’s only keep the first ICU stay in the tibble icustays_tble. (Hint: slice_min and slice_max may take long. Think alternative ways to achieve the same function.)

icustays_tble <- icustays_tble %>% 
  group_by(subject_id) %>% 
  arrange(intime, .by_group = TRUE) %>% 
  slice_head(n = 1) %>% 
  ungroup() %>% 
  print(width = Inf)

# A tibble: 53,150 × 8
   subject_id  hadm_id  stay_id first_careunit                                  
        <dbl>    <dbl>    <dbl> <chr>                                           
 1   10000032 29079034 39553978 Medical Intensive Care Unit (MICU)              
 2   10000980 26913865 39765666 Medical Intensive Care Unit (MICU)              
 3   10001217 24597018 37067082 Surgical Intensive Care Unit (SICU)             
 4   10001725 25563031 31205490 Medical/Surgical Intensive Care Unit (MICU/SICU)
 5   10001884 26184834 37510196 Medical Intensive Care Unit (MICU)              
 6   10002013 23581541 39060235 Cardiac Vascular Intensive Care Unit (CVICU)    
 7   10002155 23822395 33685454 Coronary Care Unit (CCU)                        
 8   10002223 22494570 39638202 Trauma SICU (TSICU)                             
 9   10002348 22725460 32610785 Neuro Intermediate                              
10   10002428 28662225 33987268 Medical Intensive Care Unit (MICU)              
   last_careunit                                    intime             
   <chr>                                            <dttm>             
 1 Medical Intensive Care Unit (MICU)               2180-07-23 14:00:00
 2 Medical Intensive Care Unit (MICU)               2189-06-27 08:42:00
 3 Surgical Intensive Care Unit (SICU)              2157-11-20 19:18:02
 4 Medical/Surgical Intensive Care Unit (MICU/SICU) 2110-04-11 15:52:22
 5 Medical Intensive Care Unit (MICU)               2131-01-11 04:20:05
 6 Cardiac Vascular Intensive Care Unit (CVICU)     2160-05-18 10:00:53
 7 Coronary Care Unit (CCU)                         2129-08-04 12:45:00
 8 Trauma SICU (TSICU)                              2158-01-15 08:01:49
 9 Neuro Intermediate                               2112-11-30 23:24:00
10 Medical Intensive Care Unit (MICU)               2156-04-12 16:24:18
   outtime               los
   <dttm>              <dbl>
 1 2180-07-23 23:50:47 0.410
 2 2189-06-27 20:38:27 0.498
 3 2157-11-21 22:08:00 1.12 
 4 2110-04-12 23:59:56 1.34 
 5 2131-01-20 08:27:30 9.17 
 6 2160-05-19 17:33:33 1.31 
 7 2129-08-10 17:02:38 6.18 
 8 2158-01-16 15:19:24 1.30 
 9 2112-12-10 18:25:13 9.79 
10 2156-04-17 15:57:08 4.98 
# … with 53,140 more rows
…
Import admissions.csv.gz as a tibble admissions_tble.

admissions_tble <- str_c(mimic_path, "/core/admissions.csv.gz") %>% 
  read_csv() %>% 
  print(width = Inf)

# A tibble: 523,740 × 15
   subject_id  hadm_id admittime           dischtime           deathtime
        <dbl>    <dbl> <dttm>              <dttm>              <dttm>   
 1   14679932 21038362 2139-09-26 14:16:00 2139-09-28 11:30:00 NA       
 2   15585972 24941086 2123-10-07 23:56:00 2123-10-12 11:22:00 NA       
 3   11989120 21965160 2147-01-14 09:00:00 2147-01-17 14:25:00 NA       
 4   17817079 24709883 2165-12-27 17:33:00 2165-12-31 21:18:00 NA       
 5   15078341 23272159 2122-08-28 08:48:00 2122-08-30 12:32:00 NA       
 6   19124609 20517215 2169-03-14 12:44:00 2169-03-20 19:15:00 NA       
 7   17301855 29732723 2140-06-06 14:23:00 2140-06-08 14:25:00 NA       
 8   17991012 24298836 2181-07-10 20:28:00 2181-07-12 15:49:00 NA       
 9   16865435 23216961 2185-07-19 02:12:00 2185-07-21 11:50:00 NA       
10   13693648 21640725 2111-01-30 23:43:00 2111-02-02 13:03:00 NA       
   admission_type admission_location discharge_location insurance language
   <chr>          <chr>              <chr>              <chr>     <chr>   
 1 ELECTIVE       <NA>               HOME               Other     ENGLISH 
 2 ELECTIVE       <NA>               HOME               Other     ENGLISH 
 3 ELECTIVE       <NA>               HOME               Other     ENGLISH 
 4 ELECTIVE       <NA>               HOME               Other     ENGLISH 
 5 ELECTIVE       <NA>               HOME               Other     ENGLISH 
 6 ELECTIVE       <NA>               HOME               Other     ENGLISH 
 7 ELECTIVE       <NA>               HOME               Other     ENGLISH 
 8 ELECTIVE       <NA>               HOME               Other     ENGLISH 
 9 ELECTIVE       <NA>               HOME               Other     ENGLISH 
10 ELECTIVE       <NA>               HOME               Other     ENGLISH 
   marital_status ethnicity              edregtime edouttime
   <chr>          <chr>                  <dttm>    <dttm>   
 1 SINGLE         UNKNOWN                NA        NA       
 2 <NA>           WHITE                  NA        NA       
 3 <NA>           UNKNOWN                NA        NA       
 4 <NA>           OTHER                  NA        NA       
 5 <NA>           BLACK/AFRICAN AMERICAN NA        NA       
 6 <NA>           UNKNOWN                NA        NA       
 7 <NA>           WHITE                  NA        NA       
 8 <NA>           WHITE                  NA        NA       
 9 <NA>           WHITE                  NA        NA       
10 <NA>           WHITE                  NA        NA       
   hospital_expire_flag
                  <dbl>
 1                    0
 2                    0
 3                    0
 4                    0
 5                    0
 6                    0
 7                    0
 8                    0
 9                    0
10                    0
# … with 523,730 more rows

Let’s only keep the admissions that have a match in icustays_tble according to subject_id and hadm_id.

admissions_tble <- admissions_tble %>% 
  semi_join(
    icustays_tble, 
    by = c("subject_id", "hadm_id")
    ) %>% 
  select(-hadm_id) %>% 
  print(width = Inf)

# A tibble: 53,150 × 14
   subject_id admittime           dischtime           deathtime          
        <dbl> <dttm>              <dttm>              <dttm>             
 1   10222255 2120-11-20 20:25:00 2120-11-22 13:00:00 NA                 
 2   14485852 2113-10-31 00:23:00 2113-11-04 16:50:00 NA                 
 3   18709254 2195-10-12 01:31:00 2195-10-12 13:51:00 NA                 
 4   16837807 2151-03-19 06:09:00 2151-03-19 07:20:00 2151-03-19 07:20:00
 5   17642680 2116-05-29 12:48:00 2116-05-30 12:31:00 NA                 
 6   18230965 2142-03-12 20:00:00 2142-03-17 15:26:00 NA                 
 7   17374121 2115-07-22 07:15:00 2115-07-24 17:50:00 NA                 
 8   13346506 2181-11-19 14:32:00 2181-11-22 18:47:00 NA                 
 9   18030332 2152-07-22 21:28:00 2152-07-27 16:49:00 NA                 
10   14328744 2126-08-20 09:26:00 2126-08-21 11:36:00 NA                 
   admission_type     admission_location     discharge_location insurance
   <chr>              <chr>                  <chr>              <chr>    
 1 EU OBSERVATION     TRANSFER FROM HOSPITAL <NA>               Other    
 2 EW EMER.           EMERGENCY ROOM         <NA>               Other    
 3 EU OBSERVATION     EMERGENCY ROOM         <NA>               Medicaid 
 4 EU OBSERVATION     EMERGENCY ROOM         <NA>               Medicare 
 5 EU OBSERVATION     WALK-IN/SELF REFERRAL  <NA>               Other    
 6 URGENT             PHYSICIAN REFERRAL     HOME               Other    
 7 DIRECT OBSERVATION PHYSICIAN REFERRAL     <NA>               Other    
 8 EU OBSERVATION     EMERGENCY ROOM         <NA>               Other    
 9 URGENT             TRANSFER FROM HOSPITAL HOME               Other    
10 EU OBSERVATION     EMERGENCY ROOM         <NA>               Other    
   language marital_status ethnicity edregtime           edouttime          
   <chr>    <chr>          <chr>     <dttm>              <dttm>             
 1 ENGLISH  MARRIED        WHITE     2120-11-20 18:07:00 2120-11-21 20:25:00
 2 ENGLISH  SINGLE         WHITE     2113-10-30 19:48:00 2113-10-31 05:10:00
 3 ENGLISH  WIDOWED        ASIAN     2195-10-11 18:40:00 2195-10-12 02:47:00
 4 ENGLISH  SINGLE         WHITE     2151-03-19 02:55:00 2151-03-19 06:59:00
 5 ENGLISH  SINGLE         WHITE     2116-05-29 10:05:00 2116-05-30 01:17:00
 6 ENGLISH  MARRIED        WHITE     NA                  NA                 
 7 ENGLISH  MARRIED        WHITE     NA                  NA                 
 8 ENGLISH  MARRIED        WHITE     2181-11-19 10:51:00 2181-11-19 15:12:00
 9 ENGLISH  MARRIED        UNKNOWN   NA                  NA                 
10 ENGLISH  MARRIED        WHITE     2126-08-19 23:01:00 2126-08-20 10:14:00
   hospital_expire_flag
                  <dbl>
 1                    0
 2                    0
 3                    0
 4                    1
 5                    0
 6                    0
 7                    0
 8                    0
 9                    0
10                    0
# … with 53,140 more rows
…
patients_tble <- str_c(mimic_path, "/core/patients.csv.gz") %>% 
  read_csv() %>% 
  semi_join(
    icustays_tble, 
    by = "subject_id"
    ) %>% 
  mutate(
    gender = case_when(gender == "F" ~ "Female", 
                       gender == "M" ~ "Male", 
                       TRUE ~ gender
                       )
    ) %>% 
  print(width = Inf)

# A tibble: 53,150 × 6
   subject_id gender anchor_age anchor_year anchor_year_group dod       
        <dbl> <chr>       <dbl>       <dbl> <chr>             <date>    
 1   10018928 Female         31        2125 2008 - 2010       NA        
 2   10076543 Female         78        2187 2008 - 2010       NA        
 3   10098428 Female         85        2119 2008 - 2010       NA        
 4   10127185 Male           60        2141 2008 - 2010       NA        
 5   10148710 Male           67        2137 2008 - 2010       NA        
 6   10156486 Female         75        2124 2017 - 2019       NA        
 7   10159585 Male           59        2146 2008 - 2010       2154-04-16
 8   10171525 Female         27        2115 2014 - 2016       NA        
 9   10196360 Male           57        2118 2011 - 2013       NA        
10   10227823 Male           45        2156 2014 - 2016       NA        
# … with 53,140 more rows
…
labevents_tble <- 
  str_c(
    mimic_path, 
    "/hosp/labevents_filtered_itemid.csv.gz"
    ) %>% 
  read_csv() %>% 
  filter(itemid %in% dlabitems_tble$itemid) %>% 
  semi_join(
    icustays_tble, 
    by = "subject_id"
    ) %>% 
  print(width = Inf)

# A tibble: 13,926,853 × 4
   subject_id itemid charttime           valuenum
        <dbl>  <dbl> <dttm>                 <dbl>
 1   10003700  50882 2162-11-15 17:00:00     27  
 2   10003700  50902 2162-11-15 17:00:00    103  
 3   10003700  50912 2162-11-15 17:00:00      1  
 4   10003700  50931 2162-11-15 17:00:00     93  
 5   10003700  50971 2162-11-15 17:00:00      4.1
 6   10003700  50983 2162-11-15 17:00:00    141  
 7   10003700  51221 2162-11-15 17:00:00     40  
 8   10003700  51301 2162-11-15 17:00:00      6.7
 9   10003700  51221 2165-04-24 03:40:00     41  
10   10003700  51301 2165-04-24 03:40:00      5.8
# … with 13,926,843 more rows
…
    values_from = valuenum
  ) %>% 
  rename_at(
    vars(dlabitems_tble %>% 
           pull(itemid) %>% 
           as.character()
         ), 
    ~dlabitems_tble %>% 
      pull(label) %>% 
      str_to_lower() %>% 
      str_replace_all(" ","_")
    ) %>% 
  print(width = Inf)

# A tibble: 51,618 × 9
   subject_id bicarbonate chloride creatinine glucose potassium sodium
        <dbl>       <dbl>    <dbl>      <dbl>   <dbl>     <dbl>  <dbl>
 1   10000032          21      102        0.5     115       4.7    132
 2   10001217          23      104        0.4     113       3.6    138
 3   10001725          24      106        0.8     146       3.9    140
 4   10001884          33       96        1.1     148       4      136
 5   10002013          23      109        1.1      98       4      140
 6   10002155          25      106        0.9      95       4.5    139
 7   10002223          26      102        0.8      88       3.9    138
 8   10002348          23      107        0.8     127       4.8    142
 9   10002428          20       98        0.8      99       3.9    129
10   10002430          22      105        2.2     128       3.8    144
   hematocrit white_blood_cells
        <dbl>             <dbl>
 1       NA                NA  
 2       33.6              19  
 3       39.1              17  
 4       36                18.4
 5       28.6              18.2
 6       37.9               5.5
 7       32.5              10.1
 8       39.3               4.3
 9       28.7              22.4
10       36.6              10.3
# … with 51,608 more rows
…
chartevents_tble <- 
  str_c(
    mimic_path, 
    "/icu/chartevents_filtered_itemid.csv.gz") %>% 
  read_csv() %>% 
  filter(itemid %in% dchartitems_tble$itemid) %>% 
  semi_join(
    icustays_tble, 
    by = c("subject_id", "hadm_id", "stay_id")
    ) %>% 
  select(-c(hadm_id, stay_id)) %>% 
  print(width = Inf)

# A tibble: 15,738,349 × 4
   subject_id charttime           itemid valuenum
        <dbl> <dttm>               <dbl>    <dbl>
 1   10003700 2165-04-24 05:28:00 220179    152  
 2   10003700 2165-04-24 05:28:00 220181    110  
 3   10003700 2165-04-24 05:30:00 220045     65  
 4   10003700 2165-04-24 05:30:00 220210     14  
 5   10003700 2165-04-24 05:38:00 223761     97.6
 6   10003700 2165-04-24 06:00:00 220045     56  
 7   10003700 2165-04-24 06:00:00 220179    126  
 8   10003700 2165-04-24 06:00:00 220181     88  
 9   10003700 2165-04-24 06:00:00 220210     14  
10   10003700 2165-04-24 06:09:00 220045     55  
# … with 15,738,339 more rows
…
    values_from = valuenum
  ) %>% 
  rename_at(
    vars(dchartitems_tble %>% 
           pull(itemid) %>% 
           as.character()
         ), 
    ~dchartitems_tble %>% 
      pull(label) %>% 
      str_to_lower() %>% 
      str_replace_all(" ","_")
    ) %>% 
  print(width = Inf)

# A tibble: 53,136 × 6
   subject_id heart_rate non_invasive_blood_pressure_systolic
        <dbl>      <dbl>                                <dbl>
 1   10000032         91                                   84
 2   10000980         77                                  150
 3   10001217         86                                  151
 4   10001725         55                                   73
 5   10001884         38                                  180
 6   10002013         80                                  104
 7   10002155         68                                  126
 8   10002223        100                                  123
 9   10002348         72                                  129
10   10002428        124                                   87
   non_invasive_blood_pressure_mean respiratory_rate temperature_fahrenheit
                              <dbl>            <dbl>                  <dbl>
 1                               56               24                   98.7
 2                               92               23                   98  
 3                              104               18                   98.5
 4                               59               19                   97.7
 5                               46               10                   98.1
 6                               77               14                   97.2
 7                               78               18                   95.9
 8                               80               29                   98.6
 9                               85               14                   97.9
10                               53               25                  103. 
# … with 53,126 more rows
…
